Multiplicadores/simulation/qsim/multiplicador.msim.vcd
$comment
	File created using the following command:
		vcd file multiplicador.msim.vcd -direction
$end
$date
	Sun Jun 06 01:18:23 2021
$end
$version
	ModelSim Version 10.1d
$end
$timescale
	1ps
$end
$scope module multiplicadorSequencial_vlg_vec_tst $end
$var reg 1 ! clock $end
$var reg 1 " enable $end
$var reg 8 # op1 [7:0] $end
$var reg 8 $ op2 [7:0] $end
$var reg 1 % reset $end
$var wire 1 & estado [3] $end
$var wire 1 ' estado [2] $end
$var wire 1 ( estado [1] $end
$var wire 1 ) estado [0] $end
$var wire 1 * resultado [15] $end
$var wire 1 + resultado [14] $end
$var wire 1 , resultado [13] $end
$var wire 1 - resultado [12] $end
$var wire 1 . resultado [11] $end
$var wire 1 / resultado [10] $end
$var wire 1 0 resultado [9] $end
$var wire 1 1 resultado [8] $end
$var wire 1 2 resultado [7] $end
$var wire 1 3 resultado [6] $end
$var wire 1 4 resultado [5] $end
$var wire 1 5 resultado [4] $end
$var wire 1 6 resultado [3] $end
$var wire 1 7 resultado [2] $end
$var wire 1 8 resultado [1] $end
$var wire 1 9 resultado [0] $end
$var wire 1 : sampler $end
$scope module i1 $end
$var wire 1 ; gnd $end
$var wire 1 < vcc $end
$var wire 1 = unknown $end
$var tri1 1 > devclrn $end
$var tri1 1 ? devpor $end
$var tri1 1 @ devoe $end
$var wire 1 A Mux20~0_combout $end
$var wire 1 B Mux22~0_combout $end
$var wire 1 C Mux23~0_combout $end
$var wire 1 D Somador|somador:0:componenteSomador|saida~0_combout $end
$var wire 1 E Somador|somador:1:componenteSomador|saida~combout $end
$var wire 1 F Mux19~0_combout $end
$var wire 1 G Mux19~1_combout $end
$var wire 1 H op2[0]~input_o $end
$var wire 1 I op2[1]~input_o $end
$var wire 1 J op1[5]~input_o $end
$var wire 1 K op1[4]~input_o $end
$var wire 1 L op1[3]~input_o $end
$var wire 1 M op1[6]~input_o $end
$var wire 1 N op1[0]~input_o $end
$var wire 1 O op1[7]~input_o $end
$var wire 1 P op1[2]~input_o $end
$var wire 1 Q estado[0]~output_o $end
$var wire 1 R estado[1]~output_o $end
$var wire 1 S estado[2]~output_o $end
$var wire 1 T estado[3]~output_o $end
$var wire 1 U resultado[0]~output_o $end
$var wire 1 V resultado[1]~output_o $end
$var wire 1 W resultado[2]~output_o $end
$var wire 1 X resultado[3]~output_o $end
$var wire 1 Y resultado[4]~output_o $end
$var wire 1 Z resultado[5]~output_o $end
$var wire 1 [ resultado[6]~output_o $end
$var wire 1 \ resultado[7]~output_o $end
$var wire 1 ] resultado[8]~output_o $end
$var wire 1 ^ resultado[9]~output_o $end
$var wire 1 _ resultado[10]~output_o $end
$var wire 1 ` resultado[11]~output_o $end
$var wire 1 a resultado[12]~output_o $end
$var wire 1 b resultado[13]~output_o $end
$var wire 1 c resultado[14]~output_o $end
$var wire 1 d resultado[15]~output_o $end
$var wire 1 e clock~input_o $end
$var wire 1 f clock~inputclkctrl_outclk $end
$var wire 1 g reset~input_o $end
$var wire 1 h reset~inputclkctrl_outclk $end
$var wire 1 i Mux24~0_combout $end
$var wire 1 j Mux35~0_combout $end
$var wire 1 k Mux21~0_combout $end
$var wire 1 l Mux21~0clkctrl_outclk $end
$var wire 1 m Mux2~0_combout $end
$var wire 1 n Mux2~0clkctrl_outclk $end
$var wire 1 o enable~input_o $end
$var wire 1 p Mux26~0_combout $end
$var wire 1 q Mux26~0clkctrl_outclk $end
$var wire 1 r op2[3]~input_o $end
$var wire 1 s Mux29~0_combout $end
$var wire 1 t op2[2]~input_o $end
$var wire 1 u Mux28~0_combout $end
$var wire 1 v Mux27~0_combout $end
$var wire 1 w Mux25~0_combout $end
$var wire 1 x op1[1]~input_o $end
$var wire 1 y Mux35~1_combout $end
$var wire 1 z Mux35~1clkctrl_outclk $end
$var wire 1 { Mux19~2_combout $end
$var wire 1 | Mux19~3_combout $end
$var wire 1 } Mux19~4_combout $end
$var wire 1 ~ controlaMux~combout $end
$var wire 1 !! Somador|somador:0:componenteSomador|cout~0_combout $end
$var wire 1 "! Somador|somador:1:componenteSomador|cout~0_combout $end
$var wire 1 #! Somador|somador:2:componenteSomador|cout~0_combout $end
$var wire 1 $! Somador|somador:3:componenteSomador|saida~0_combout $end
$var wire 1 %! Somador|somador:2:componenteSomador|saida~0_combout $end
$var wire 1 &! op2[7]~input_o $end
$var wire 1 '! Mux33~0_combout $end
$var wire 1 (! op2[6]~input_o $end
$var wire 1 )! Mux32~0_combout $end
$var wire 1 *! op2[5]~input_o $end
$var wire 1 +! Mux31~0_combout $end
$var wire 1 ,! op2[4]~input_o $end
$var wire 1 -! Mux30~0_combout $end
$var wire 1 .! Somador|somador:3:componenteSomador|cout~0_combout $end
$var wire 1 /! Somador|somador:4:componenteSomador|cout~0_combout $end
$var wire 1 0! Somador|somador:5:componenteSomador|cout~0_combout $end
$var wire 1 1! Somador|somador:6:componenteSomador|cout~0_combout $end
$var wire 1 2! Somador|somador:7:componenteSomador|cout~0_combout $end
$var wire 1 3! Somador|somador:7:componenteSomador|saida~0_combout $end
$var wire 1 4! Somador|somador:6:componenteSomador|saida~0_combout $end
$var wire 1 5! Somador|somador:5:componenteSomador|saida~0_combout $end
$var wire 1 6! Somador|somador:4:componenteSomador|saida~0_combout $end
$var wire 1 7! MD|q [15] $end
$var wire 1 8! MD|q [14] $end
$var wire 1 9! MD|q [13] $end
$var wire 1 :! MD|q [12] $end
$var wire 1 ;! MD|q [11] $end
$var wire 1 <! MD|q [10] $end
$var wire 1 =! MD|q [9] $end
$var wire 1 >! MD|q [8] $end
$var wire 1 ?! MD|q [7] $end
$var wire 1 @! MD|q [6] $end
$var wire 1 A! MD|q [5] $end
$var wire 1 B! MD|q [4] $end
$var wire 1 C! MD|q [3] $end
$var wire 1 D! MD|q [2] $end
$var wire 1 E! MD|q [1] $end
$var wire 1 F! MD|q [0] $end
$var wire 1 G! a [7] $end
$var wire 1 H! a [6] $end
$var wire 1 I! a [5] $end
$var wire 1 J! a [4] $end
$var wire 1 K! a [3] $end
$var wire 1 L! a [2] $end
$var wire 1 M! a [1] $end
$var wire 1 N! a [0] $end
$var wire 1 O! prox [3] $end
$var wire 1 P! prox [2] $end
$var wire 1 Q! prox [1] $end
$var wire 1 R! prox [0] $end
$var wire 1 S! PR|q [15] $end
$var wire 1 T! PR|q [14] $end
$var wire 1 U! PR|q [13] $end
$var wire 1 V! PR|q [12] $end
$var wire 1 W! PR|q [11] $end
$var wire 1 X! PR|q [10] $end
$var wire 1 Y! PR|q [9] $end
$var wire 1 Z! PR|q [8] $end
$var wire 1 [! PR|q [7] $end
$var wire 1 \! PR|q [6] $end
$var wire 1 ]! PR|q [5] $end
$var wire 1 ^! PR|q [4] $end
$var wire 1 _! PR|q [3] $end
$var wire 1 `! PR|q [2] $end
$var wire 1 a! PR|q [1] $end
$var wire 1 b! PR|q [0] $end
$var wire 1 c! atual [3] $end
$var wire 1 d! atual [2] $end
$var wire 1 e! atual [1] $end
$var wire 1 f! atual [0] $end
$var wire 1 g! MR|q [15] $end
$var wire 1 h! MR|q [14] $end
$var wire 1 i! MR|q [13] $end
$var wire 1 j! MR|q [12] $end
$var wire 1 k! MR|q [11] $end
$var wire 1 l! MR|q [10] $end
$var wire 1 m! MR|q [9] $end
$var wire 1 n! MR|q [8] $end
$var wire 1 o! MR|q [7] $end
$var wire 1 p! MR|q [6] $end
$var wire 1 q! MR|q [5] $end
$var wire 1 r! MR|q [4] $end
$var wire 1 s! MR|q [3] $end
$var wire 1 t! MR|q [2] $end
$var wire 1 u! MR|q [1] $end
$var wire 1 v! MR|q [0] $end
$var wire 1 w! b [7] $end
$var wire 1 x! b [6] $end
$var wire 1 y! b [5] $end
$var wire 1 z! b [4] $end
$var wire 1 {! b [3] $end
$var wire 1 |! b [2] $end
$var wire 1 }! b [1] $end
$var wire 1 ~! b [0] $end
$var wire 1 !" entradaRegitrador [15] $end
$var wire 1 "" entradaRegitrador [14] $end
$var wire 1 #" entradaRegitrador [13] $end
$var wire 1 $" entradaRegitrador [12] $end
$var wire 1 %" entradaRegitrador [11] $end
$var wire 1 &" entradaRegitrador [10] $end
$var wire 1 '" entradaRegitrador [9] $end
$var wire 1 (" entradaRegitrador [8] $end
$var wire 1 )" entradaRegitrador [7] $end
$var wire 1 *" entradaRegitrador [6] $end
$var wire 1 +" entradaRegitrador [5] $end
$var wire 1 ," entradaRegitrador [4] $end
$var wire 1 -" entradaRegitrador [3] $end
$var wire 1 ." entradaRegitrador [2] $end
$var wire 1 /" entradaRegitrador [1] $end
$var wire 1 0" entradaRegitrador [0] $end
$upscope $end
$upscope $end
$enddefinitions $end
#0
$dumpvars
0!
1"
b101 #
b1011 $
1%
0)
0(
0'
0&
09
08
07
06
05
04
03
02
01
00
0/
0.
0-
0,
0+
0*
x:
0;
1<
x=
1>
1?
1@
0A
0B
0C
0D
0E
0F
0G
1H
1I
0J
0K
0L
0M
1N
0O
1P
0Q
0R
0S
0T
0U
0V
0W
0X
0Y
0Z
0[
0\
0]
0^
0_
0`
0a
0b
0c
0d
0e
0f
1g
1h
0i
1j
1k
1l
0m
0n
1o
1p
1q
1r
1s
0t
0u
1v
1w
0x
1y
1z
0{
0|
0}
x~
0!!
0"!
0#!
0$!
0%!
0&!
0'!
0(!
0)!
0*!
0+!
0,!
0-!
0.!
0/!
00!
01!
02!
03!
04!
05!
06!
0F!
0E!
0D!
0C!
0B!
0A!
0@!
0?!
z>!
z=!
z<!
z;!
z:!
z9!
z8!
z7!
1N!
0M!
1L!
0K!
0J!
0I!
0H!
0G!
1R!
0Q!
0P!
0O!
0b!
0a!
0`!
0_!
0^!
0]!
0\!
0[!
0Z!
0Y!
0X!
0W!
0V!
0U!
0T!
0S!
0f!
0e!
0d!
0c!
0v!
0u!
0t!
0s!
0r!
0q!
0p!
0o!
zn!
zm!
zl!
zk!
zj!
zi!
zh!
zg!
1~!
1}!
0|!
1{!
0z!
0y!
0x!
0w!
x0"
x/"
x."
x-"
x,"
x+"
x*"
x)"
x("
x'"
x&"
x%"
x$"
x#"
x""
x!"
$end
#8500
1!
1e
1f
0:
#17000
0!
0e
0f
1:
#25500
1!
1e
1f
0:
#30000
0%
0g
0h
1:
#34000
0!
0e
0f
0:
#42500
1!
1e
1f
1:
1v!
1F!
1E!
1C!
1t!
xW!
xV!
xU!
xT!
xS!
xY!
xX!
xZ!
xb!
xa!
x`!
x_!
x^!
x]!
x\!
x[!
1f!
1{
x!!
xD
x"!
xE
x.!
x$!
x6!
x5!
x4!
x3!
x%!
1m
0j
1B
1A
x`
xa
xb
xc
xd
x^
x_
x]
xU
xV
xW
xX
xY
xZ
x[
x\
1Q
1n
x.
x-
x,
x+
x*
x0
x/
x1
x9
x8
x7
x6
x5
x4
x3
x2
1)
1|
x#!
x/!
0y
0p
1Q!
0R!
0!"
0~
0z
0q
1}
x0!
0!!
1~
x1!
0"!
x2!
0#!
x"!
x!!
x!"
x#!
#51000
0!
0e
0f
0:
#59500
1!
1e
1f
1:
1e!
0f!
0{
0A
1R
0Q
1(
0)
0|
1R!
0}
0~
0!!
0"!
0#!
0.!
0/!
00!
01!
02!
0!"
#68000
0!
0e
0f
0:
#76500
1!
1e
1f
1:
0S!
1f!
03!
1{
1F
1C
0B
1A
0d
1Q
0*
1)
0""
1|
1P!
0Q!
0R!
1}
1~
x.!
x"!
x!!
x/!
x#!
x0!
x1!
x3!
x""
#85000
0!
0e
0f
0:
#93500
1!
1e
1f
1:
1d!
0e!
0f!
0}
0{
1G
0F
0A
1S
0R
0Q
1'
0(
0)
0~
0|
1}
0G
1R!
0!!
1~
0}
x!!
0~
0!!
0"!
0#!
0.!
0/!
00!
01!
03!
0""
#102000
0!
0e
0f
0:
#110500
1!
1e
1f
1:
0T!
1f!
04!
1{
1B
1A
0c
1Q
0+
1)
0#"
1|
1Q!
0R!
#119000
0!
0e
0f
0:
#127500
1!
1e
1f
1:
1e!
0U!
0f!
0{
05!
0A
1R
0b
0Q
1(
0,
0)
0|
0$"
1R!
#136000
0!
0e
0f
0:
#144500
1!
1e
1f
1:
0V!
1f!
06!
1{
1i
1F
0C
0B
1A
0a
1Q
0-
1)
0%"
1|
1O!
0P!
0Q!
0R!
#153000
0!
0e
0f
0:
#161500
1!
1e
1f
1:
1c!
0d!
0e!
0W!
0f!
1p
0k
1}
1j
0i
0{
1G
0F
0$!
1T
0S
0R
0`
0Q
1q
0l
1&
0'
0(
0.
0)
1~
0p
1k
0|
0G
0&"
0q
1l
1$!
x"!
x!!
0}
0O!
1&"
x#!
0~
x$!
0!!
x&"
0"!
0#!
0$!
0&"
#170000
0!
0e
0f
0:
#178500
1!
1e
1f
1:
0c!
0X!
1y
1p
0m
0A
0%!
0T
0_
1z
1q
0n
0&
0/
1R!
#187000
0!
0e
0f
0:
#195500
1!
1e
1f
1:
1f!
1{
1m
0j
1B
1A
1Q
1n
1)
1|
0y
0p
1Q!
0R!
0'"
0z
0q
1}
1~
1$!
x"!
x!!
1&"
x%!
x'"
#204000
0!
0e
0f
0:
#212500
1!
1e
1f
1:
1e!
1X!
0f!
0{
x#!
0A
1R
1_
0Q
1(
1/
0)
0|
x.!
x$!
1R!
0}
x6!
x&"
0~
x%"
0.!
0!!
06!
0"!
0%"
1%!
0#!
1'"
0$!
0&"
#221000
0!
0e
0f
0:
#229500
1!
1e
1f
1:
1Y!
0X!
1f!
1E
0%!
1{
1F
1C
0B
1A
1^
0_
1Q
10
0/
1)
1("
0'"
1|
1P!
0Q!
0R!
1}
1~
1$!
1"!
x!!
0E
1&"
1%!
xE
0("
1'"
x("
#238000
0!
0e
0f
0:
#246500
1!
1e
1f
1:
1d!
0e!
1X!
0f!
0}
0{
1G
0F
0%!
1#!
0A
1S
0R
1_
0Q
1'
0(
1/
0)
0~
0|
1}
0G
0'"
1.!
0$!
1R!
16!
0.!
1$!
x"!
0!!
1~
0}
0&"
1%"
06!
1&"
x%!
x#!
1"!
0E
1.!
0$!
x!!
0~
0%"
0&"
x'"
0.!
x$!
0%!
1#!
0("
16!
x"!
xE
0!!
1%"
x&"
0'"
06!
1$!
x("
x%!
x#!
0"!
1E
0%"
1&"
x'"
1("
x$!
1%!
0#!
x&"
1'"
0$!
0&"
#255000
0!
0e
0f
0:
#263500
1!
1e
1f
1:
0X!
1Z!
1f!
0%!
1D
1{
1B
1A
0_
1]
1Q
0/
11
1)
0'"
1)"
1|
1Q!
0R!
#272000
0!
0e
0f
0:
#280500
1!
1e
1f
1:
1e!
0Y!
1[!
0f!
0{
0E
1*"
0A
1R
0^
1\
0Q
1(
00
12
0)
0|
0("
1R!
#289000
0!
0e
0f
0:
#297500
1!
1e
1f
1:
0Z!
1\!
1f!
0D
1+"
1{
1i
1F
0C
0B
1A
0]
1[
1Q
01
13
1)
0)"
1|
1O!
0P!
0Q!
0R!
#306000
0!
0e
0f
0:
#314500
1!
1e
1f
1:
1c!
0d!
0e!
1]!
0[!
0f!
1p
0k
1}
1j
0i
0{
1G
0F
1,"
0*"
1T
0S
0R
1Z
0\
0Q
1q
0l
1&
0'
0(
14
02
0)
1~
0p
1k
0|
0G
0q
1l
1$!
1E
1D
0}
0O!
1&"
1("
1)"
0~
0$!
0E
0D
0&"
0("
0)"
#323000
0!
0e
0f
0:
#331500
1!
1e
1f
1:
0c!
1^!
0\!
1y
1p
0m
0A
1-"
0+"
0T
1Y
0[
1z
1q
0n
0&
15
03
1R!
#340000
0!
0e
0f
0:
#348500
1!
1e
1f
1:
1_!
0]!
1f!
1{
1m
0j
1B
1A
1X
0Z
1Q
1n
16
04
1)
1|
0y
0p
1Q!
0R!
1."
0,"
0z
0q
1}
1~
1$!
1E
1D
1&"
1("
1)"
#357000
0!
0e
0f
0:
#360000
b1000101 #
1M
1:
#365500
1!
1e
1f
0:
1e!
1X!
1Z!
1`!
0^!
1[!
0f!
0{
1%!
1!!
0D
1/"
0-"
1*"
0A
1R
1_
1]
1W
0Y
1\
0Q
1(
1/
11
17
05
12
0)
0|
1'"
1"!
0E
0)"
1R!
0}
0%!
1#!
0("
0~
0'"
1.!
0$!
16!
0.!
1$!
0"!
0!!
1E
1D
0&"
1%"
06!
1&"
1%!
0#!
0E
1("
1)"
0%"
1'"
0$!
0("
0&"
#374000
0!
0e
0f
1:
#382500
1!
1e
1f
0:
1Y!
0X!
0Z!
1a!
0_!
1\!
1f!
1E
0%!
0D
10"
0."
1+"
1{
1F
1C
0B
1A
1^
0_
0]
1V
0X
1[
1Q
10
0/
01
18
06
13
1)
1("
0'"
0)"
1|
1P!
0Q!
0R!
1}
1~
1$!
1"!
0E
1D
1&"
1%!
0("
1)"
1'"
#391000
0!
0e
0f
1:
#399500
1!
1e
1f
0:
1d!
0e!
1X!
1b!
0`!
1]!
0f!
0}
0{
1G
0F
0%!
1#!
0/"
1,"
0A
1S
0R
1_
1U
0W
1Z
0Q
1'
0(
1/
19
07
14
0)
0~
0|
1}
0G
0'"
1.!
0$!
1R!
16!
0.!
1$!
0"!
1~
1E
0D
0}
0&"
1%"
06!
1&"
1%!
0#!
1.!
0$!
1"!
0~
0E
1D
1("
0)"
0%"
0&"
1'"
0.!
16!
0%!
1#!
0"!
1E
0D
0("
1)"
1%"
0'"
06!
1$!
1%!
0#!
1("
0)"
0%"
1'"
1&"
0$!
0&"
#408000
0!
0e
0f
1:
#416500
1!
1e
1f
0:
0X!
1Z!
0a!
1^!
0[!
1f!
0%!
1D
00"
1-"
0*"
1{
1B
1A
0_
1]
0V
1Y
0\
1Q
0/
11
08
15
02
1)
0'"
1)"
1|
1Q!
0R!
#425000
0!
0e
0f
1:
#433500
1!
1e
1f
0:
1e!
0Y!
0b!
1_!
0\!
1[!
0f!
0{
0E
1."
0+"
1*"
0A
1R
0^
0U
1X
0[
1\
0Q
1(
00
09
16
03
12
0)
0|
0("
1R!
#442000
0!
0e
0f
1:
#450500
1!
1e
1f
0:
0Z!
1`!
0]!
1\!
1f!
0D
1/"
0,"
1+"
1{
1i
1F
0C
0B
1A
0]
1W
0Z
1[
1Q
01
17
04
13
1)
0)"
1|
1O!
0P!
0Q!
0R!
#459000
0!
0e
0f
1:
#467500
1!
1e
1f
0:
1c!
0d!
0e!
1a!
0^!
1]!
0[!
0f!
1p
0k
1}
1j
0i
0{
1G
0F
10"
0-"
1,"
0*"
1T
0S
0R
1V
0Y
1Z
0\
0Q
1q
0l
1&
0'
0(
18
05
14
02
0)
1~
0p
1k
0|
0G
0q
1l
1$!
1E
1D
0}
0O!
1&"
1("
1)"
0~
0$!
0E
0D
0&"
0("
0)"
#476000
0!
0e
0f
1:
#484500
1!
1e
1f
0:
0c!
1b!
0_!
1^!
0\!
1y
1p
0m
0A
0."
1-"
0+"
0T
1U
0X
1Y
0[
1z
1q
0n
0&
19
06
15
03
1R!
1H!
#493000
0!
0e
0f
1:
#501500
1!
1e
1f
0:
1p!
0`!
1_!
0]!
1f!
1{
1m
0j
1B
1A
0W
1X
0Z
1Q
1n
07
16
04
1)
1|
0y
0p
1Q!
0R!
0/"
1."
0,"
0z
0q
1}
1~
1$!
1E
1D
1&"
1("
1)"
#510000
0!
0e
0f
1:
#518500
1!
1e
1f
0:
1e!
1X!
1Z!
0a!
1`!
0^!
1[!
0f!
0{
1%!
1!!
0D
00"
1/"
0-"
1*"
0A
1R
1_
1]
0V
1W
0Y
1\
0Q
1(
1/
11
08
17
05
12
0)
0|
1'"
1"!
0E
0)"
1R!
0}
0%!
1#!
0("
0~
0'"
1.!
0$!
16!
0.!
1$!
0"!
0!!
1E
1D
0&"
1%"
06!
1&"
1%!
0#!
0E
1("
1)"
0%"
1'"
0$!
0("
0&"
#527000
0!
0e
0f
1:
#535500
1!
1e
1f
0:
1Y!
0X!
0Z!
0b!
1a!
0_!
1\!
1f!
1E
0%!
0D
10"
0."
1+"
1{
1F
1C
0B
1A
1^
0_
0]
0U
1V
0X
1[
1Q
10
0/
01
09
18
06
13
1)
1("
0'"
0)"
1|
1G
1P!
0Q!
0R!
1}
1~
1$!
1"!
0E
1D
1&"
1%!
0("
1)"
1'"
#544000
0!
0e
0f
1:
#552500
1!
1e
1f
0:
1d!
0e!
1X!
1b!
0`!
1]!
0f!
0{
0F
0%!
1#!
0/"
1,"
0A
1S
0R
1_
1U
0W
1Z
0Q
1'
0(
1/
19
07
14
0)
0|
0G
0'"
1.!
0$!
1R!
0}
16!
0&"
0~
1%"
0.!
1$!
0"!
1E
0D
06!
1&"
1%!
0#!
1("
0)"
0%"
1'"
0$!
0&"
#561000
0!
0e
0f
1:
#569500
1!
1e
1f
0:
0X!
1Z!
0a!
1^!
0[!
1f!
0%!
1D
00"
1-"
0*"
1{
1B
1A
0_
1]
0V
1Y
0\
1Q
0/
11
08
15
02
1)
0'"
1)"
1|
1Q!
0R!
#578000
0!
0e
0f
1:
#580000
b1000111 #
b111 #
1x
0M
0:
#586500
1!
1e
1f
1:
1e!
0Y!
0b!
1_!
0\!
1[!
0f!
0{
0E
1."
0+"
1*"
0A
1R
0^
0U
1X
0[
1\
0Q
1(
00
09
16
03
12
0)
0|
0("
1R!
#595000
0!
0e
0f
0:
#603500
1!
1e
1f
1:
0Z!
1`!
0]!
1\!
1f!
0D
1/"
0,"
1+"
1{
1i
1F
0C
0B
1A
0]
1W
0Z
1[
1Q
01
17
04
13
1)
0)"
1|
1O!
1G
0P!
0Q!
0R!
1}
1~
1$!
1E
1D
1&"
1("
1)"
#612000
0!
0e
0f
0:
#620500
1!
1e
1f
1:
1c!
0d!
0e!
1X!
1Z!
1a!
0^!
1]!
0f!
1p
0k
1j
0i
0{
0F
1%!
1!!
0D
10"
0-"
1,"
1T
0S
0R
1_
1]
1V
0Y
1Z
0Q
1q
0l
1&
0'
0(
1/
11
18
05
14
0)
0p
1k
0|
0G
1'"
1"!
0E
0)"
0q
1l
0}
0%!
1#!
0("
0O!
0~
0'"
1.!
0$!
16!
0.!
1$!
0"!
0!!
1E
1D
0&"
1%"
06!
1&"
1%!
0#!
0E
1("
1)"
0%"
1'"
0$!
0("
0&"
#629000
0!
0e
0f
0:
#637500
1!
1e
1f
1:
0c!
1Y!
0X!
0Z!
1b!
0_!
1^!
1y
1p
0m
0A
1E
0%!
0D
0."
1-"
0T
1^
0_
0]
1U
0X
1Y
1z
1q
0n
0&
10
0/
01
19
06
15
1R!
1M!
0H!
#646000
0!
0e
0f
0:
#654500
1!
1e
1f
1:
1u!
0p!
0`!
1_!
1f!
1{
1m
0j
1B
1A
0W
1X
1Q
1n
07
16
1)
1|
0y
0p
1Q!
0R!
0'"
1("
0/"
1."
0)"
0z
0q
1}
1~
1$!
1"!
0E
1D
1&"
1%!
0("
1)"
1'"
#663000
0!
0e
0f
0:
#671500
1!
1e
1f
1:
1e!
1X!
0a!
1`!
0f!
0{
0%!
1#!
00"
1/"
0A
1R
1_
0V
1W
0Q
1(
1/
08
17
0)
0'"
1.!
0$!
1R!
16!
0&"
1%"
#680000
0!
0e
0f
0:
#688500
1!
1e
1f
1:
1W!
0Y!
0X!
0b!
1a!
1f!
1$!
0"!
1E
1%!
0#!
10"
1{
1F
1C
0B
1A
1`
0^
0_
0U
1V
1Q
1.
00
0/
09
18
1)
1&"
0%!
1("
1'"
0$!
1P!
0Q!
0R!
0&"
0'"
#697000
0!
0e
0f
0:
#705500
1!
1e
1f
1:
1d!
0e!
1Z!
1b!
0f!
0}
0{
1G
0F
1!!
0D
0A
1S
0R
1]
1U
0Q
1'
0(
11
19
0)
0~
0|
1}
0G
1"!
0E
0)"
1R!
0.!
1%!
1$!
0"!
0!!
1~
1E
1D
0}
0("
06!
1'"
1&"
0%!
1.!
0$!
1!!
0~
0D
1("
1)"
0%"
0'"
0&"
16!
0.!
1$!
0!!
1D
0)"
1%"
1&"
06!
0E
1)"
0%"
0("
#714000
0!
0e
0f
0:
#722500
1!
1e
1f
1:
0W!
1X!
0Z!
1f!
0$!
1%!
0D
1{
1B
1A
0`
1_
0]
1Q
0.
1/
01
1)
0&"
1'"
0)"
1|
1Q!
0R!
#731000
0!
0e
0f
0:
#739500
1!
1e
1f
1:
1e!
1Y!
0X!
0[!
0f!
0{
1E
0%!
0*"
0A
1R
1^
0_
0\
0Q
1(
10
0/
02
0)
1("
0'"
1R!
#748000
0!
0e
0f
0:
#756500
1!
1e
1f
1:
0Y!
1Z!
0\!
1f!
0E
1D
0+"
1{
1i
1F
0C
0B
1A
0^
1]
0[
1Q
00
11
03
1)
0("
1)"
1O!
0P!
0Q!
0R!
#765000
0!
0e
0f
0:
#773500
1!
1e
1f
1:
1c!
0d!
0e!
0Z!
0]!
1[!
0f!
1p
0k
1}
1j
0i
0{
1G
0F
0D
0,"
1*"
1T
0S
0R
0]
0Z
1\
0Q
1q
0l
1&
0'
0(
01
04
12
0)
1~
0p
1k
0|
0G
0)"
0q
1l
1$!
1E
1D
0}
0O!
1&"
1("
1)"
0~
0$!
0E
0D
0&"
0("
0)"
#782000
0!
0e
0f
0:
#790500
1!
1e
1f
1:
0c!
0^!
1\!
0[!
1y
1p
0m
0A
0-"
1+"
0*"
0T
0Y
1[
0\
1z
1q
0n
0&
05
13
02
1R!
#799000
0!
0e
0f
0:
#807500
1!
1e
1f
1:
0_!
1]!
0\!
1f!
1{
1m
0j
1B
1A
0X
1Z
0[
1Q
1n
06
14
03
1)
1|
0y
0p
1Q!
0R!
0."
1,"
0+"
0z
0q
1}
1~
1$!
1E
1D
1&"
1("
1)"
#816000
0!
0e
0f
0:
#824500
1!
1e
1f
1:
1e!
1X!
1Z!
0`!
1^!
0]!
1[!
0f!
0{
1%!
1!!
0D
0/"
1-"
0,"
1*"
0A
1R
1_
1]
0W
1Y
0Z
1\
0Q
1(
1/
11
07
15
04
12
0)
1'"
1"!
0E
0)"
1R!
0%!
1#!
0("
0'"
1.!
0$!
16!
0&"
1%"
#833000
0!
0e
0f
0:
#841500
1!
1e
1f
1:
1W!
0X!
0Z!
0a!
1_!
0^!
1\!
0[!
1f!
1$!
1%!
0#!
0!!
1D
00"
1."
0-"
1+"
0*"
1{
1F
1C
0B
1A
1`
0_
0]
0V
1X
0Y
1[
0\
1Q
1.
0/
01
08
16
05
13
02
1)
1&"
1'"
0$!
0"!
1E
1)"
1P!
0Q!
0R!
0&"
0%!
1("
0'"
#850000
0!
0e
0f
0:
#858500
1!
1e
1f
1:
1d!
0e!
1Z!
0b!
1`!
0_!
1]!
0\!
1[!
0f!
0}
0{
1G
0F
1!!
0D
1/"
0."
1,"
0+"
1*"
0A
1S
0R
1]
0U
1W
0X
1Z
0[
1\
0Q
1'
0(
11
09
17
06
14
03
12
0)
0~
0|
1}
0G
1"!
0E
0)"
1R!
0.!
1%!
1$!
0"!
0!!
1~
1E
1D
0}
0("
06!
1'"
1&"
0%!
1.!
0$!
1!!
0~
0D
1("
1)"
0%"
0'"
0&"
16!
0.!
1$!
0!!
1D
0)"
1%"
1&"
06!
0E
1)"
0%"
0("
#867000
0!
0e
0f
0:
#875500
1!
1e
1f
1:
0W!
1X!
0Z!
1a!
0`!
1^!
0]!
1\!
1f!
0$!
1%!
0D
10"
0/"
1-"
0,"
1+"
1{
1B
1A
0`
1_
0]
1V
0W
1Y
0Z
1[
1Q
0.
1/
01
18
07
15
04
13
1)
0&"
1'"
0)"
1|
1Q!
0R!
#884000
0!
0e
0f
0:
#892500
1!
1e
1f
1:
1e!
1Y!
0X!
1b!
0a!
1_!
0^!
1]!
0[!
0f!
0{
1E
0%!
00"
1."
0-"
1,"
0*"
0A
1R
1^
0_
1U
0V
1X
0Y
1Z
0\
0Q
1(
10
0/
19
08
16
05
14
02
0)
1("
0'"
1R!
#901000
0!
0e
0f
0:
#909500
1!
1e
1f
1:
0Y!
1Z!
0b!
1`!
0_!
1^!
0\!
1f!
0E
1D
1/"
0."
1-"
0+"
1{
1i
1F
0C
0B
1A
0^
1]
0U
1W
0X
1Y
0[
1Q
00
11
09
17
06
15
03
1)
0("
1)"
1O!
0P!
0Q!
0R!
#918000
0!
0e
0f
0:
#926500
1!
1e
1f
1:
1c!
0d!
0e!
0Z!
1a!
0`!
1_!
0]!
1[!
0f!
1p
0k
1}
1j
0i
0{
1G
0F
0D
10"
0/"
1."
0,"
1*"
1T
0S
0R
0]
1V
0W
1X
0Z
1\
0Q
1q
0l
1&
0'
0(
01
18
07
16
04
12
0)
1~
0p
1k
0|
0G
0)"
0q
1l
1$!
1E
1D
0}
0O!
1&"
1("
1)"
0~
0$!
0E
0D
0&"
0("
0)"
#935000
0!
0e
0f
0:
#943500
1!
1e
1f
1:
0c!
1b!
0a!
1`!
0^!
1\!
0[!
1y
1p
0m
0A
00"
1/"
0-"
1+"
0*"
0T
1U
0V
1W
0Y
1[
0\
1z
1q
0n
0&
19
08
17
05
13
02
1R!
#952000
0!
0e
0f
0:
#960500
1!
1e
1f
1:
0b!
1a!
0_!
1]!
0\!
1f!
1{
1m
0j
1B
1A
0U
1V
0X
1Z
0[
1Q
1n
09
18
06
14
03
1)
1|
0y
0p
1Q!
0R!
10"
0."
1,"
0+"
0z
0q
1}
1~
1$!
1E
1D
1&"
1("
1)"
#969000
0!
0e
0f
0:
#977500
1!
1e
1f
1:
1e!
1X!
1Z!
1b!
0`!
1^!
0]!
1[!
0f!
0{
1%!
1!!
0D
0/"
1-"
0,"
1*"
0A
1R
1_
1]
1U
0W
1Y
0Z
1\
0Q
1(
1/
11
19
07
15
04
12
0)
1'"
1"!
0E
0)"
1R!
0%!
1#!
0("
0'"
1.!
0$!
16!
0&"
1%"
#986000
0!
0e
0f
0:
